%YAML 1.1
%TAG !u! tag:unity3d.com,2011:
--- !u!29 &1
OcclusionCullingSettings:
  m_ObjectHideFlags: 0
  serializedVersion: 2
  m_OcclusionBakeSettings:
    smallestOccluder: 5
    smallestHole: 0.25
    backfaceThreshold: 100
  m_SceneGUID: 00000000000000000000000000000000
  m_OcclusionCullingData: {fileID: 0}
--- !u!104 &2
RenderSettings:
  m_ObjectHideFlags: 0
  serializedVersion: 9
  m_Fog: 0
  m_FogColor: {r: 0.5, g: 0.5, b: 0.5, a: 1}
  m_FogMode: 3
  m_FogDensity: 0.01
  m_LinearFogStart: 0
  m_LinearFogEnd: 300
  m_AmbientSkyColor: {r: 0.212, g: 0.227, b: 0.259, a: 1}
  m_AmbientEquatorColor: {r: 0.114, g: 0.125, b: 0.133, a: 1}
  m_AmbientGroundColor: {r: 0.047, g: 0.043, b: 0.035, a: 1}
  m_AmbientIntensity: 1
  m_AmbientMode: 0
  m_SubtractiveShadowColor: {r: 0.42, g: 0.478, b: 0.627, a: 1}
  m_SkyboxMaterial: {fileID: 10304, guid: 0000000000000000f000000000000000, type: 0}
  m_HaloStrength: 0.5
  m_FlareStrength: 1
  m_FlareFadeSpeed: 3
  m_HaloTexture: {fileID: 0}
  m_SpotCookie: {fileID: 10001, guid: 0000000000000000e000000000000000, type: 0}
  m_DefaultReflectionMode: 0
  m_DefaultReflectionResolution: 128
  m_ReflectionBounces: 1
  m_ReflectionIntensity: 1
  m_CustomReflection: {fileID: 0}
  m_Sun: {fileID: 0}
  m_IndirectSpecularColor: {r: 0, g: 0, b: 0, a: 1}
  m_UseRadianceAmbientProbe: 0
--- !u!157 &3
LightmapSettings:
  m_ObjectHideFlags: 0
  serializedVersion: 11
  m_GIWorkflowMode: 1
  m_GISettings:
    serializedVersion: 2
    m_BounceScale: 1
    m_IndirectOutputScale: 1
    m_AlbedoBoost: 1
    m_EnvironmentLightingMode: 0
    m_EnableBakedLightmaps: 1
    m_EnableRealtimeLightmaps: 1
  m_LightmapEditorSettings:
    serializedVersion: 12
    m_Resolution: 2
    m_BakeResolution: 40
    m_AtlasSize: 1024
    m_AO: 0
    m_AOMaxDistance: 1
    m_CompAOExponent: 1
    m_CompAOExponentDirect: 0
    m_ExtractAmbientOcclusion: 0
    m_Padding: 2
    m_LightmapParameters: {fileID: 0}
    m_LightmapsBakeMode: 1
    m_TextureCompression: 1
    m_FinalGather: 0
    m_FinalGatherFiltering: 1
    m_FinalGatherRayCount: 256
    m_ReflectionCompression: 2
    m_MixedBakeMode: 2
    m_BakeBackend: 1
    m_PVRSampling: 1
    m_PVRDirectSampleCount: 32
    m_PVRSampleCount: 512
    m_PVRBounces: 2
    m_PVREnvironmentSampleCount: 256
    m_PVREnvironmentReferencePointCount: 2048
    m_PVRFilteringMode: 1
    m_PVRDenoiserTypeDirect: 1
    m_PVRDenoiserTypeIndirect: 1
    m_PVRDenoiserTypeAO: 1
    m_PVRFilterTypeDirect: 0
    m_PVRFilterTypeIndirect: 0
    m_PVRFilterTypeAO: 0
    m_PVREnvironmentMIS: 1
    m_PVRCulling: 1
    m_PVRFilteringGaussRadiusDirect: 1
    m_PVRFilteringGaussRadiusIndirect: 5
    m_PVRFilteringGaussRadiusAO: 2
    m_PVRFilteringAtrousPositionSigmaDirect: 0.5
    m_PVRFilteringAtrousPositionSigmaIndirect: 2
    m_PVRFilteringAtrousPositionSigmaAO: 1
    m_ShowResolutionOverlay: 1
    m_ExportTrainingData: 0
  m_LightingDataAsset: {fileID: 0}
  m_UseShadowmask: 1
--- !u!196 &4
NavMeshSettings:
  serializedVersion: 2
  m_ObjectHideFlags: 0
  m_BuildSettings:
    serializedVersion: 2
    agentTypeID: 0
    agentRadius: 0.5
    agentHeight: 2
    agentSlope: 45
    agentClimb: 0.4
    ledgeDropHeight: 0
    maxJumpAcrossDistance: 0
    minRegionArea: 2
    manualCellSize: 0
    cellSize: 0.16666667
    manualTileSize: 0
    tileSize: 256
    accuratePlacement: 0
    debug:
      m_Flags: 0
  m_NavMeshData: {fileID: 0}
--- !u!1 &128474894
GameObject:
  m_ObjectHideFlags: 0
  m_CorrespondingSourceObject: {fileID: 0}
  m_PrefabInstance: {fileID: 0}
  m_PrefabAsset: {fileID: 0}
  serializedVersion: 6
  m_Component:
  - component: {fileID: 128474896}
  - component: {fileID: 128474895}
  m_Layer: 0
  m_Name: Directional Light
  m_TagString: Untagged
  m_Icon: {fileID: 0}
  m_NavMeshLayer: 0
  m_StaticEditorFlags: 0
  m_IsActive: 1
--- !u!108 &128474895
Light:
  m_ObjectHideFlags: 0
  m_CorrespondingSourceObject: {fileID: 0}
  m_PrefabInstance: {fileID: 0}
  m_PrefabAsset: {fileID: 0}
  m_GameObject: {fileID: 128474894}
  m_Enabled: 1
  serializedVersion: 9
  m_Type: 1
  m_Color: {r: 1, g: 0.95686275, b: 0.8392157, a: 1}
  m_Intensity: 1
  m_Range: 10
  m_SpotAngle: 30
  m_InnerSpotAngle: 21.80208
  m_CookieSize: 10
  m_Shadows:
    m_Type: 2
    m_Resolution: -1
    m_CustomResolution: -1
    m_Strength: 1
    m_Bias: 0.05
    m_NormalBias: 0.4
    m_NearPlane: 0.2
    m_CullingMatrixOverride:
      e00: 1
      e01: 0
      e02: 0
      e03: 0
      e10: 0
      e11: 1
      e12: 0
      e13: 0
      e20: 0
      e21: 0
      e22: 1
      e23: 0
      e30: 0
      e31: 0
      e32: 0
      e33: 1
    m_UseCullingMatrixOverride: 0
  m_Cookie: {fileID: 0}
  m_DrawHalo: 0
  m_Flare: {fileID: 0}
  m_RenderMode: 0
  m_CullingMask:
    serializedVersion: 2
    m_Bits: 4294967295
  m_RenderingLayerMask: 1
  m_Lightmapping: 4
  m_LightShadowCasterMode: 0
  m_AreaSize: {x: 1, y: 1}
  m_BounceIntensity: 1
  m_ColorTemperature: 6570
  m_UseColorTemperature: 0
  m_BoundingSphereOverride: {x: 0, y: 0, z: 0, w: 0}
  m_UseBoundingSphereOverride: 0
  m_ShadowRadius: 0
  m_ShadowAngle: 0
--- !u!4 &128474896
Transform:
  m_ObjectHideFlags: 0
  m_CorrespondingSourceObject: {fileID: 0}
  m_PrefabInstance: {fileID: 0}
  m_PrefabAsset: {fileID: 0}
  m_GameObject: {fileID: 128474894}
  m_LocalRotation: {x: 0.40821788, y: -0.23456968, z: 0.10938163, w: 0.8754261}
  m_LocalPosition: {x: 0, y: 3, z: 0}
  m_LocalScale: {x: 1, y: 1, z: 1}
  m_Children: []
  m_Father: {fileID: 0}
  m_RootOrder: 0
  m_LocalEulerAnglesHint: {x: 50, y: -30, z: 0}
--- !u!1001 &233802636
PrefabInstance:
  m_ObjectHideFlags: 0
  serializedVersion: 2
  m_Modification:
    m_TransformParent: {fileID: 0}
    m_Modifications:
    - target: {fileID: 7429953730735362836, guid: 0d36568305618da478e55f35eac6c9d3,
        type: 3}
      propertyPath: m_Name
      value: Public Applause
      objectReference: {fileID: 0}
    - target: {fileID: 7429953730735362838, guid: 0d36568305618da478e55f35eac6c9d3,
        type: 3}
      propertyPath: m_LocalPosition.x
      value: 244.185
      objectReference: {fileID: 0}
    - target: {fileID: 7429953730735362838, guid: 0d36568305618da478e55f35eac6c9d3,
        type: 3}
      propertyPath: m_LocalPosition.y
      value: -101.08
      objectReference: {fileID: 0}
    - target: {fileID: 7429953730735362838, guid: 0d36568305618da478e55f35eac6c9d3,
        type: 3}
      propertyPath: m_LocalPosition.z
      value: -1028
      objectReference: {fileID: 0}
    - target: {fileID: 7429953730735362838, guid: 0d36568305618da478e55f35eac6c9d3,
        type: 3}
      propertyPath: m_LocalRotation.x
      value: -0.7071068
      objectReference: {fileID: 0}
    - target: {fileID: 7429953730735362838, guid: 0d36568305618da478e55f35eac6c9d3,
        type: 3}
      propertyPath: m_LocalRotation.y
      value: -0
      objectReference: {fileID: 0}
    - target: {fileID: 7429953730735362838, guid: 0d36568305618da478e55f35eac6c9d3,
        type: 3}
      propertyPath: m_LocalRotation.z
      value: -0
      objectReference: {fileID: 0}
    - target: {fileID: 7429953730735362838, guid: 0d36568305618da478e55f35eac6c9d3,
        type: 3}
      propertyPath: m_LocalRotation.w
      value: 0.7071067
      objectReference: {fileID: 0}
    - target: {fileID: 7429953730735362838, guid: 0d36568305618da478e55f35eac6c9d3,
        type: 3}
      propertyPath: m_RootOrder
      value: 3
      objectReference: {fileID: 0}
    - target: {fileID: 7429953730735362838, guid: 0d36568305618da478e55f35eac6c9d3,
        type: 3}
      propertyPath: m_LocalEulerAnglesHint.x
      value: 0
      objectReference: {fileID: 0}
    - target: {fileID: 7429953730735362838, guid: 0d36568305618da478e55f35eac6c9d3,
        type: 3}
      propertyPath: m_LocalEulerAnglesHint.y
      value: 0
      objectReference: {fileID: 0}
    - target: {fileID: 7429953730735362838, guid: 0d36568305618da478e55f35eac6c9d3,
        type: 3}
      propertyPath: m_LocalEulerAnglesHint.z
      value: 0
      objectReference: {fileID: 0}
    - target: {fileID: 7429953730735362839, guid: 0d36568305618da478e55f35eac6c9d3,
        type: 3}
      propertyPath: MinDistance
      value: 18
      objectReference: {fileID: 0}
    - target: {fileID: 7429953730735362839, guid: 0d36568305618da478e55f35eac6c9d3,
        type: 3}
      propertyPath: MaxDistance
      value: 21
      objectReference: {fileID: 0}
    - target: {fileID: 7429953730735362839, guid: 0d36568305618da478e55f35eac6c9d3,
        type: 3}
      propertyPath: m_PlayOnAwake
      value: 0
      objectReference: {fileID: 0}
    m_RemovedComponents: []
  m_SourcePrefab: {fileID: 100100000, guid: 0d36568305618da478e55f35eac6c9d3, type: 3}
--- !u!1001 &267791545
PrefabInstance:
  m_ObjectHideFlags: 0
  serializedVersion: 2
  m_Modification:
    m_TransformParent: {fileID: 572491001}
    m_Modifications:
    - target: {fileID: 1989818115699917161, guid: 17ed89e569181ab4e8e34ce1ace812b5,
        type: 3}
      propertyPath: m_Name
      value: Audio Reverb Zone
      objectReference: {fileID: 0}
    - target: {fileID: 1989818115699917167, guid: 17ed89e569181ab4e8e34ce1ace812b5,
        type: 3}
      propertyPath: m_LocalPosition.x
      value: 0.053999938
      objectReference: {fileID: 0}
    - target: {fileID: 1989818115699917167, guid: 17ed89e569181ab4e8e34ce1ace812b5,
        type: 3}
      propertyPath: m_LocalPosition.y
      value: -0.00849976
      objectReference: {fileID: 0}
    - target: {fileID: 1989818115699917167, guid: 17ed89e569181ab4e8e34ce1ace812b5,
        type: 3}
      propertyPath: m_LocalPosition.z
      value: 0.040367503
      objectReference: {fileID: 0}
    - target: {fileID: 1989818115699917167, guid: 17ed89e569181ab4e8e34ce1ace812b5,
        type: 3}
      propertyPath: m_LocalRotation.x
      value: 0.7071068
      objectReference: {fileID: 0}
    - target: {fileID: 1989818115699917167, guid: 17ed89e569181ab4e8e34ce1ace812b5,
        type: 3}
      propertyPath: m_LocalRotation.y
      value: -0
      objectReference: {fileID: 0}
    - target: {fileID: 1989818115699917167, guid: 17ed89e569181ab4e8e34ce1ace812b5,
        type: 3}
      propertyPath: m_LocalRotation.z
      value: -0
      objectReference: {fileID: 0}
    - target: {fileID: 1989818115699917167, guid: 17ed89e569181ab4e8e34ce1ace812b5,
        type: 3}
      propertyPath: m_LocalRotation.w
      value: 0.7071067
      objectReference: {fileID: 0}
    - target: {fileID: 1989818115699917167, guid: 17ed89e569181ab4e8e34ce1ace812b5,
        type: 3}
      propertyPath: m_RootOrder
      value: 7
      objectReference: {fileID: 0}
    - target: {fileID: 1989818115699917167, guid: 17ed89e569181ab4e8e34ce1ace812b5,
        type: 3}
      propertyPath: m_LocalEulerAnglesHint.x
      value: 0
      objectReference: {fileID: 0}
    - target: {fileID: 1989818115699917167, guid: 17ed89e569181ab4e8e34ce1ace812b5,
        type: 3}
      propertyPath: m_LocalEulerAnglesHint.y
      value: 0
      objectReference: {fileID: 0}
    - target: {fileID: 1989818115699917167, guid: 17ed89e569181ab4e8e34ce1ace812b5,
        type: 3}
      propertyPath: m_LocalEulerAnglesHint.z
      value: 0
      objectReference: {fileID: 0}
    - target: {fileID: 1989818115699917167, guid: 17ed89e569181ab4e8e34ce1ace812b5,
        type: 3}
      propertyPath: m_LocalScale.x
      value: 0.01
      objectReference: {fileID: 0}
    - target: {fileID: 1989818115699917167, guid: 17ed89e569181ab4e8e34ce1ace812b5,
        type: 3}
      propertyPath: m_LocalScale.y
      value: 0.009999998
      objectReference: {fileID: 0}
    - target: {fileID: 1989818115699917167, guid: 17ed89e569181ab4e8e34ce1ace812b5,
        type: 3}
      propertyPath: m_LocalScale.z
      value: 0.009999998
      objectReference: {fileID: 0}
    - target: {fileID: 1989818115699917166, guid: 17ed89e569181ab4e8e34ce1ace812b5,
        type: 3}
      propertyPath: m_MaxDistance
      value: 15
      objectReference: {fileID: 0}
    - target: {fileID: 1989818115699917166, guid: 17ed89e569181ab4e8e34ce1ace812b5,
        type: 3}
      propertyPath: m_MinDistance
      value: 15
      objectReference: {fileID: 0}
    m_RemovedComponents: []
  m_SourcePrefab: {fileID: 100100000, guid: 17ed89e569181ab4e8e34ce1ace812b5, type: 3}
--- !u!4 &572491001 stripped
Transform:
  m_CorrespondingSourceObject: {fileID: 5402001374378893650, guid: c9235d1a6f77f8a47a212cc1229035c8,
    type: 3}
  m_PrefabInstance: {fileID: 773726216}
  m_PrefabAsset: {fileID: 0}
--- !u!1001 &773726216
PrefabInstance:
  m_ObjectHideFlags: 0
  serializedVersion: 2
  m_Modification:
    m_TransformParent: {fileID: 0}
    m_Modifications:
    - target: {fileID: 8983725205131121473, guid: c9235d1a6f77f8a47a212cc1229035c8,
        type: 3}
      propertyPath: m_Name
      value: scene
      objectReference: {fileID: 0}
    - target: {fileID: 5402001374378893650, guid: c9235d1a6f77f8a47a212cc1229035c8,
        type: 3}
      propertyPath: m_LocalPosition.x
      value: 245.1
      objectReference: {fileID: 0}
    - target: {fileID: 5402001374378893650, guid: c9235d1a6f77f8a47a212cc1229035c8,
        type: 3}
      propertyPath: m_LocalPosition.y
      value: -102.8
      objectReference: {fileID: 0}
    - target: {fileID: 5402001374378893650, guid: c9235d1a6f77f8a47a212cc1229035c8,
        type: 3}
      propertyPath: m_LocalPosition.z
      value: -1028
      objectReference: {fileID: 0}
    - target: {fileID: 5402001374378893650, guid: c9235d1a6f77f8a47a212cc1229035c8,
        type: 3}
      propertyPath: m_LocalRotation.x
      value: -0.7071068
      objectReference: {fileID: 0}
    - target: {fileID: 5402001374378893650, guid: c9235d1a6f77f8a47a212cc1229035c8,
        type: 3}
      propertyPath: m_LocalRotation.y
      value: -0
      objectReference: {fileID: 0}
    - target: {fileID: 5402001374378893650, guid: c9235d1a6f77f8a47a212cc1229035c8,
        type: 3}
      propertyPath: m_LocalRotation.z
      value: -0
      objectReference: {fileID: 0}
    - target: {fileID: 5402001374378893650, guid: c9235d1a6f77f8a47a212cc1229035c8,
        type: 3}
      propertyPath: m_LocalRotation.w
      value: 0.7071067
      objectReference: {fileID: 0}
    - target: {fileID: 5402001374378893650, guid: c9235d1a6f77f8a47a212cc1229035c8,
        type: 3}
      propertyPath: m_RootOrder
      value: 2
      objectReference: {fileID: 0}
    - target: {fileID: 5402001374378893650, guid: c9235d1a6f77f8a47a212cc1229035c8,
        type: 3}
      propertyPath: m_LocalEulerAnglesHint.x
      value: -89.98
      objectReference: {fileID: 0}
    - target: {fileID: 5402001374378893650, guid: c9235d1a6f77f8a47a212cc1229035c8,
        type: 3}
      propertyPath: m_LocalEulerAnglesHint.y
      value: 0
      objectReference: {fileID: 0}
    - target: {fileID: 5402001374378893650, guid: c9235d1a6f77f8a47a212cc1229035c8,
        type: 3}
      propertyPath: m_LocalEulerAnglesHint.z
      value: 0
      objectReference: {fileID: 0}
    m_RemovedComponents: []
  m_SourcePrefab: {fileID: 100100000, guid: c9235d1a6f77f8a47a212cc1229035c8, type: 3}
--- !u!1001 &1006465903
PrefabInstance:
  m_ObjectHideFlags: 0
  serializedVersion: 2
  m_Modification:
    m_TransformParent: {fileID: 0}
    m_Modifications:
    - target: {fileID: 100004, guid: 126d619cf4daa52469682f85c1378b4a, type: 3}
      propertyPath: m_Name
      value: OVRCameraRig
      objectReference: {fileID: 0}
    - target: {fileID: 400004, guid: 126d619cf4daa52469682f85c1378b4a, type: 3}
      propertyPath: m_LocalPosition.x
      value: 258.95
      objectReference: {fileID: 0}
    - target: {fileID: 400004, guid: 126d619cf4daa52469682f85c1378b4a, type: 3}
      propertyPath: m_LocalPosition.y
      value: -100.26
      objectReference: {fileID: 0}
    - target: {fileID: 400004, guid: 126d619cf4daa52469682f85c1378b4a, type: 3}
      propertyPath: m_LocalPosition.z
      value: -1031.2468
      objectReference: {fileID: 0}
    - target: {fileID: 400004, guid: 126d619cf4daa52469682f85c1378b4a, type: 3}
      propertyPath: m_LocalRotation.x
      value: 0
      objectReference: {fileID: 0}
    - target: {fileID: 400004, guid: 126d619cf4daa52469682f85c1378b4a, type: 3}
      propertyPath: m_LocalRotation.y
      value: 0
      objectReference: {fileID: 0}
    - target: {fileID: 400004, guid: 126d619cf4daa52469682f85c1378b4a, type: 3}
      propertyPath: m_LocalRotation.z
      value: 0
      objectReference: {fileID: 0}
    - target: {fileID: 400004, guid: 126d619cf4daa52469682f85c1378b4a, type: 3}
      propertyPath: m_LocalRotation.w
      value: 1
      objectReference: {fileID: 0}
    - target: {fileID: 400004, guid: 126d619cf4daa52469682f85c1378b4a, type: 3}
      propertyPath: m_RootOrder
      value: 1
      objectReference: {fileID: 0}
    - target: {fileID: 400004, guid: 126d619cf4daa52469682f85c1378b4a, type: 3}
      propertyPath: m_LocalEulerAnglesHint.x
      value: 0
      objectReference: {fileID: 0}
    - target: {fileID: 400004, guid: 126d619cf4daa52469682f85c1378b4a, type: 3}
      propertyPath: m_LocalEulerAnglesHint.y
      value: 0
      objectReference: {fileID: 0}
    - target: {fileID: 400004, guid: 126d619cf4daa52469682f85c1378b4a, type: 3}
      propertyPath: m_LocalEulerAnglesHint.z
      value: 0
      objectReference: {fileID: 0}
    m_RemovedComponents: []
  m_SourcePrefab: {fileID: 100100000, guid: 126d619cf4daa52469682f85c1378b4a, type: 3}
--- !u!1 &1752270274
GameObject:
  m_ObjectHideFlags: 0
  m_CorrespondingSourceObject: {fileID: 1989818115699917161, guid: 17ed89e569181ab4e8e34ce1ace812b5,
    type: 3}
  m_PrefabInstance: {fileID: 267791545}
  m_PrefabAsset: {fileID: 0}
  serializedVersion: 6
  m_Component:
  - component: {fileID: 1752270275}
  - component: {fileID: 1752270276}
  m_Layer: 0
  m_Name: Audio Reverb Zone
  m_TagString: Untagged
  m_Icon: {fileID: 0}
  m_NavMeshLayer: 0
  m_StaticEditorFlags: 0
  m_IsActive: 1
--- !u!4 &1752270275
Transform:
  m_ObjectHideFlags: 0
  m_CorrespondingSourceObject: {fileID: 1989818115699917167, guid: 17ed89e569181ab4e8e34ce1ace812b5,
    type: 3}
  m_PrefabInstance: {fileID: 267791545}
  m_PrefabAsset: {fileID: 0}
  m_GameObject: {fileID: 1752270274}
  m_LocalRotation: {x: 0.7071068, y: -0, z: -0, w: 0.7071067}
  m_LocalPosition: {x: 0.053999938, y: -0.00849976, z: 0.040367503}
  m_LocalScale: {x: 0.01, y: 0.009999998, z: 0.009999998}
  m_Children: []
  m_Father: {fileID: 572491001}
  m_RootOrder: 7
  m_LocalEulerAnglesHint: {x: 0, y: 0, z: 0}
--- !u!167 &1752270276
AudioReverbZone:
  m_ObjectHideFlags: 0
  m_CorrespondingSourceObject: {fileID: 1989818115699917166, guid: 17ed89e569181ab4e8e34ce1ace812b5,
    type: 3}
  m_PrefabInstance: {fileID: 267791545}
  m_PrefabAsset: {fileID: 0}
  m_GameObject: {fileID: 1752270274}
  m_Enabled: 1
  m_MinDistance: 15
  m_MaxDistance: 15
  m_ReverbPreset: 7
  m_Room: -1000
  m_RoomHF: -476
  m_DecayTime: 4.32
  m_DecayHFRatio: 0.59
  m_Reflections: -789
  m_ReflectionsDelay: 0.02
  m_Reverb: -289
  m_ReverbDelay: 0.03
  m_HFReference: 5000
  m_Diffusion: 100
  m_Density: 100
  m_LFReference: 250
  m_RoomLF: 0
--- !u!1 &1880889658
GameObject:
  m_ObjectHideFlags: 0
  m_CorrespondingSourceObject: {fileID: 7429953730735362836, guid: 0d36568305618da478e55f35eac6c9d3,
    type: 3}
  m_PrefabInstance: {fileID: 233802636}
  m_PrefabAsset: {fileID: 0}
  serializedVersion: 6
  m_Component:
  - component: {fileID: 1880889660}
  - component: {fileID: 1880889659}
  m_Layer: 0
  m_Name: Public Applause
  m_TagString: Untagged
  m_Icon: {fileID: 0}
  m_NavMeshLayer: 0
  m_StaticEditorFlags: 0
  m_IsActive: 1
--- !u!82 &1880889659
AudioSource:
  m_ObjectHideFlags: 0
  m_CorrespondingSourceObject: {fileID: 7429953730735362839, guid: 0d36568305618da478e55f35eac6c9d3,
    type: 3}
  m_PrefabInstance: {fileID: 233802636}
  m_PrefabAsset: {fileID: 0}
  m_GameObject: {fileID: 1880889658}
  m_Enabled: 1
  serializedVersion: 4
  OutputAudioMixerGroup: {fileID: 0}
  m_audioClip: {fileID: 8300000, guid: dffd088a6cdaa87469dadf9180f03d2f, type: 3}
  m_PlayOnAwake: 0
  m_Volume: 1
  m_Pitch: 1
  Loop: 0
  Mute: 0
  Spatialize: 0
  SpatializePostEffects: 0
  Priority: 128
  DopplerLevel: 1
  MinDistance: 18
  MaxDistance: 21
  Pan2D: 0
  rolloffMode: 1
  BypassEffects: 0
  BypassListenerEffects: 0
  BypassReverbZones: 0
  rolloffCustomCurve:
    serializedVersion: 2
    m_Curve:
    - serializedVersion: 3
      time: 0.04
      value: 1
      inSlope: 0
      outSlope: 0
      tangentMode: 0
      weightedMode: 0
      inWeight: 0
      outWeight: 0
    - serializedVersion: 3
      time: 1
      value: 0.9949074
      inSlope: -0.050200965
      outSlope: -0.050200965
      tangentMode: 0
      weightedMode: 0
      inWeight: 0.26165086
      outWeight: 0
    m_PreInfinity: 2
    m_PostInfinity: 2
    m_RotationOrder: 4
  panLevelCustomCurve:
    serializedVersion: 2
    m_Curve:
    - serializedVersion: 3
      time: 0
      value: 1
      inSlope: 0
      outSlope: 0
      tangentMode: 0
      weightedMode: 0
      inWeight: 0.33333334
      outWeight: 0.33333334
    m_PreInfinity: 2
    m_PostInfinity: 2
    m_RotationOrder: 4
  spreadCustomCurve:
    serializedVersion: 2
    m_Curve:
    - serializedVersion: 3
      time: 0
      value: 0
      inSlope: 0
      outSlope: 0
      tangentMode: 0
      weightedMode: 0
      inWeight: 0.33333334
      outWeight: 0.33333334
    m_PreInfinity: 2
    m_PostInfinity: 2
    m_RotationOrder: 4
  reverbZoneMixCustomCurve:
    serializedVersion: 2
    m_Curve:
    - serializedVersion: 3
      time: 0
      value: 1
      inSlope: 0
      outSlope: 0
      tangentMode: 0
      weightedMode: 0
      inWeight: 0.33333334
      outWeight: 0.33333334
    m_PreInfinity: 2
    m_PostInfinity: 2
    m_RotationOrder: 4
--- !u!4 &1880889660
Transform:
  m_ObjectHideFlags: 0
  m_CorrespondingSourceObject: {fileID: 7429953730735362838, guid: 0d36568305618da478e55f35eac6c9d3,
    type: 3}
  m_PrefabInstance: {fileID: 233802636}
  m_PrefabAsset: {fileID: 0}
  m_GameObject: {fileID: 1880889658}
  m_LocalRotation: {x: -0.7071068, y: -0, z: -0, w: 0.7071067}
  m_LocalPosition: {x: 244.185, y: -101.08, z: -1028}
  m_LocalScale: {x: 100, y: 99.99997, z: 99.99997}
  m_Children: []
  m_Father: {fileID: 0}
  m_RootOrder: 3
  m_LocalEulerAnglesHint: {x: 0, y: 0, z: 0}
